# make_my_df() works

    # A tibble: 24 x 2
       my_letters my_numbers
       <chr>           <int>
     1 a                   1
     2 b                   2
     3 c                   3
     4 d                   4
     5 e                   5
     6 f                   6
     7 g                   7
     8 h                   8
     9 i                   9
    10 j                  10
    # ... with 14 more rows
